## Interface: 40000
## Title: Sekten EP for Buffs
## Notes: Modifies the officer notes by giving EP for having certain buffs.
## Author: Glitterapa
## Version: 0.1
## SavedVariables: SEPFB_LOG

embeds.xml

Chore.lua

Libs\LibJSON-1.0\lib.xml